Welcome to the Tidyverse – Data to Manuscript in R
…
Messy vs. Tidy: Example

These tables hold exactly the same data!

What are the differences? What are the advantages of each?

mm.raw

# A tibble: 30 × 8
     Bag   Red Green  Blue Orange Yellow Brown Weight
   <int> <dbl> <dbl> <dbl>  <dbl>  <dbl> <dbl>  <dbl>
 1     1    15     9     3      3      9    19   49.8
 2     2     9    17    19      3      3     8   49.0
 3     3    14     8     6      8     19     4   50.4
 4     4    15     7     3      8     16     8   49.2
 5     5    10     3     7      9     22     4   47.6
 6     6    12     7     6      5     17    11   49.8
 7     7     6     7     3      6     26    10   50.2
 8     8    14    11     4      1     14    17   51.7
 9     9     4     2    10      6     18    18   48.4
10    10     9     9     3      9      8    15   46.2
# ℹ 20 more rows

mm.tidy

# A tibble: 180 × 4
     Bag Color  Number Bag_Weight
   <int> <chr>   <dbl>      <dbl>
 1     1 Red        15       49.8
 2     1 Green       9       49.8
 3     1 Blue        3       49.8
 4     1 Orange      3       49.8
 5     1 Yellow      9       49.8
 6     1 Brown      19       49.8
 7     2 Red         9       49.0
 8     2 Green      17       49.0
 9     2 Blue       19       49.0
10     2 Orange      3       49.0
# ℹ 170 more rows

That messy data looks pretty clean to me…

It is clean! It’s just not tidy.

Terminology Detour

Messy, Clean, Tidy

Messy data:

mm.raw

# A tibble: 30 × 8
     Bag   Red Green  Blue Orange Yellow Brown Weight
   <int> <dbl> <dbl> <dbl>  <dbl>  <dbl> <dbl>  <dbl>
 1     1    15     9     3      3      9    19   49.8
 2     2     9    17    19      3      3     8   49.0
 3     3    14     8     6      8     19     4   50.4
 4     4    15     7     3      8     16     8   49.2
 5     5    10     3     7      9     22     4   47.6
 6     6    12     7     6      5     17    11   49.8
 7     7     6     7     3      6     26    10   50.2
 8     8    14    11     4      1     14    17   51.7
 9     9     4     2    10      6     18    18   48.4
10    10     9     9     3      9      8    15   46.2
# ℹ 20 more rows

Also messy data:

mm.messy

# A tibble: 39 × 8
   ID    RED   X     GREEN WT.GRAM  Blue  Orannge Ylw. 
   <chr> <chr> <chr> <chr> <chr>    <chr> <chr>   <chr>
 1 "1 "  "15"  "19 " "9 "  "49.79 " "3 "  "3 "    "9 " 
 2 "1 "  "15"  "19 " "9 "  "49.79 " "3 "  "3 "    "9 " 
 3 "2 "  "9"   "8 "  "17 " "48.98 " "19 " <NA>    "3 " 
 4 "3 "   <NA> "4 "  "8 "  "50.4 "  "6 "  "8 "    "19 "
 5 "4 "  "15 " "8 "  "7 "  "49.16 "  <NA> "8 "    "16 "
 6 "5"   "10 " "4 "  "3 "  "47.61 " "7 "  <NA>     <NA>
 7 "6 "  "12 " "11 " "7 "  "49.8"   "6 "  "5 "    "17 "
 8 "7 "  "6 "  "10 " "7 "  "50.23 " "3 "  "6 "    "26 "
 9 "8 "  "14 " "17 " "11 " "51.68 " "4 "  <NA>    "14 "
10 "8 "   <NA> "17 " "11 " "51.68 " "4 "  "1 "    "14 "
# ℹ 29 more rows
…
# Condition 3
filter(mm.tidy, 
       Color == "Red", Number >= 15)

# Condition 4
filter(mm.tidy, 
       (Color == "Blue" & Number >= 5) |
           (Bag_Weight > 50.5 | Bag_Weight < 47),
       Bag != 6)

Condition 1:

# A tibble: 54 × 4
     Bag Color  Number Bag_Weight
   <int> <chr>   <dbl>      <dbl>
 1     3 Red        14       50.4
 2     3 Green       8       50.4
 3     3 Blue        6       50.4
 4     3 Orange      8       50.4
 5     3 Yellow     19       50.4
 6     3 Brown       4       50.4
 7     7 Red         6       50.2
 8     7 Green       7       50.2
 9     7 Blue        3       50.2
10     7 Orange      6       50.2
# ℹ 44 more rows

Condition 2:

# A tibble: 58 × 4
     Bag Color  Number Bag_Weight
   <int> <chr>   <dbl>      <dbl>
 1     1 Red        15       49.8
 2     1 Brown      19       49.8
 3     2 Red         9       49.0
 4     2 Green      17       49.0
 5     2 Blue       19       49.0
 6     3 Red        14       50.4
 7     3 Yellow     19       50.4
 8     4 Red        15       49.2
 9     4 Yellow     16       49.2
10     5 Red        10       47.6
# ℹ 48 more rows

Condition 3:

# A tibble: 4 × 4
    Bag Color Number Bag_Weight
  <int> <chr>  <dbl>      <dbl>
1     1 Red       15       49.8
2     4 Red       15       49.2
3    23 Red       20       50.0
4    29 Red       15       49.4

Condition 4:

# A tibble: 62 × 4
     Bag Color  Number Bag_Weight
   <int> <chr>   <dbl>      <dbl>
 1     2 Blue       19       49.0
 2     3 Blue        6       50.4
 3     5 Blue        7       47.6
 4     8 Red        14       51.7
 5     8 Green      11       51.7
 6     8 Blue        4       51.7
 7     8 Orange      1       51.7
 8     8 Yellow     14       51.7
 9     8 Brown      17       51.7
10     9 Blue       10       48.4
# ℹ 52 more rows
…
Strings sorted alphabetically

Ascending order (default)

Descending order:

arrange(desc(col1))

arrange(-col1)

# Sort by (ascending) bag weight
arrange(mm.tidy, Bag_Weight)

# A tibble: 180 × 4
     Bag Color  Number Bag_Weight
   <int> <chr>   <dbl>      <dbl>
 1    10 Red         9       46.2
 2    10 Green       9       46.2
 3    10 Blue        3       46.2
 4    10 Orange      9       46.2
 5    10 Yellow      8       46.2
 6    10 Brown      15       46.2
 7    26 Red         4       46.7
 8    26 Green       6       46.7
 9    26 Blue        7       46.7
10    26 Orange      6       46.7
# ℹ 170 more rows

# Sort by color -> desc number -> desc bag
arrange(mm.tidy, Color, -Number, desc(Bag))

# A tibble: 180 × 4
     Bag Color Number Bag_Weight
   <int> <chr>  <dbl>      <dbl>
 1     2 Blue      19       49.0
 2    19 Blue      16       49.0
 3    20 Blue      13       51.7
 4    13 Blue      13       46.9
 5    11 Blue      13       50.4
 6    27 Blue      11       47.7
 7    17 Blue      11       48.7
 8     9 Blue      10       48.4
 9    16 Blue       9       48.3
10    30 Blue       7       52.1
# ℹ 170 more rows
…
base R has a native |> pipe. magrittr adds the %>% pipe for tidyverse use.

The %>% pipe was the standard for many years in the tidyverse. It is usable, maintained, and popular, but no longer necessary.

As of R 1.4.0, |> is the recommend pipe for most uses. Now that it plays nicely with tidyverse pipelines, you can consistently just use |> whether you’re working in the tidyverse or not. Updated D2M-R materials will use the |> pipe going forward, but older materials may still use %>%.

Either works.

Pipe Example (1/8)

# Begin with mm.tidy
mm.tidy

# A tibble: 180 × 4
     Bag Color  Number Bag_Weight
   <int> <chr>   <dbl>      <dbl>
 1     1 Red        15       49.8
 2     1 Green       9       49.8
 3     1 Blue        3       49.8
 4     1 Orange      3       49.8
 5     1 Yellow      9       49.8
 6     1 Brown      19       49.8
 7     2 Red         9       49.0
 8     2 Green      17       49.0
 9     2 Blue       19       49.0
10     2 Orange      3       49.0
# ℹ 170 more rows

Pipe Example (2/8)

# Begin with mm.tidy
mm.tidy |>
    # Create new column: Primary_Color
    mutate(
        Color_Type = case_when(
            Color %in% c("Red", "Blue", "Yellow") ~ "Primary",
            TRUE ~ "Secondary"),    
        )

# A tibble: 180 × 5
     Bag Color  Number Bag_Weight Color_Type
   <int> <chr>   <dbl>      <dbl> <chr>     
 1     1 Red        15       49.8 Primary   
 2     1 Green       9       49.8 Secondary 
 3     1 Blue        3       49.8 Primary   
 4     1 Orange      3       49.8 Secondary 
 5     1 Yellow      9       49.8 Primary   
 6     1 Brown      19       49.8 Secondary 
 7     2 Red         9       49.0 Primary   
 8     2 Green      17       49.0 Secondary 
 9     2 Blue       19       49.0 Primary   
10     2 Orange      3       49.0 Secondary 
# ℹ 170 more rows

Pipe Example (3/8)

# Begin with mm.tidy
mm.tidy |>
    # Create new column: Primary_Color
    mutate(
        Color_Type = case_when(
            Color %in% c("Red", "Blue", "Yellow") ~ "Primary",
            TRUE ~ "Secondary"),    
        ) |> 
    # Group by color type & bag
    group_by(Color_Type, Bag)

# A tibble: 180 × 5
# Groups:   Color_Type, Bag [60]
     Bag Color  Number Bag_Weight Color_Type
   <int> <chr>   <dbl>      <dbl> <chr>     
 1     1 Red        15       49.8 Primary   
 2     1 Green       9       49.8 Secondary 
 3     1 Blue        3       49.8 Primary   
 4     1 Orange      3       49.8 Secondary 
 5     1 Yellow      9       49.8 Primary   
 6     1 Brown      19       49.8 Secondary 
 7     2 Red         9       49.0 Primary   
 8     2 Green      17       49.0 Secondary 
 9     2 Blue       19       49.0 Primary   
10     2 Orange      3       49.0 Secondary 
# ℹ 170 more rows
…
# Begin with mm.tidy
mm.tidy |>
    # Create new column: Primary_Color
    mutate(
        Color_Type = case_when(
            Color %in% c("Red", "Blue", "Yellow") ~ "Primary",
            TRUE ~ "Secondary"),    
        ) |> 
    # Group by color type & bag
    group_by(Color_Type, Bag) |>
    # Summarize total M&Ms per group
    summarize(Total_Number = sum(Number))

# A tibble: 60 × 3
# Groups:   Color_Type [2]
   Color_Type   Bag Total_Number
   <chr>      <int>        <dbl>
 1 Primary        1           27
 2 Primary        2           31
 3 Primary        3           39
 4 Primary        4           34
 5 Primary        5           39
 6 Primary        6           35
 7 Primary        7           35
 8 Primary        8           32
 9 Primary        9           32
10 Primary       10           20
# ℹ 50 more rows
…
mm.tidy |>
    # Create new column: Primary_Color
    mutate(
        Color_Type = case_when(
            Color %in% c("Red", "Blue", "Yellow") ~ "Primary",
            TRUE ~ "Secondary"),    
        ) |> 
    # Group by color type & bag
    group_by(Color_Type, Bag) |>
    # Summarize total M&Ms per group
    summarize(Total_Number = sum(Number)) |>
    # Arrange by bag then color_type
    arrange(Bag, Color_Type)

# A tibble: 60 × 3
# Groups:   Color_Type [2]
   Color_Type   Bag Total_Number
   <chr>      <int>        <dbl>
 1 Primary        1           27
 2 Secondary      1           31
 3 Primary        2           31
 4 Secondary      2           28
 5 Primary        3           39
 6 Secondary      3           20
 7 Primary        4           34
 8 Secondary      4           23
 9 Primary        5           39
10 Secondary      5           16
# ℹ 50 more rows
…
            TRUE ~ "Secondary"),    
        ) |> 
    # Group by color type & bag
    group_by(Color_Type, Bag) |>
    # Summarize total M&Ms per group
    summarize(Total_Number = sum(Number)) |>
    # Arrange by bag then color_type
    arrange(Bag, Color_Type) |> 
    # Pivot wider: one row per bag
    pivot_wider(
        names_from = Color_Type,
        values_from = Total_Number
    )

# A tibble: 30 × 3
     Bag Primary Secondary
   <int>   <dbl>     <dbl>
 1     1      27        31
 2     2      31        28
 3     3      39        20
 4     4      34        23
 5     5      39        16
 6     6      35        23
 7     7      35        23
 8     8      32        29
 9     9      32        26
10    10      20        33
# ℹ 20 more rows
…
    pivot_wider(
        names_from = Color_Type,
        values_from = Total_Number
    ) |> 
    # Add column determining which color type is more prevalent
    mutate(
        More_Prevalent = 
            case_when(
                Primary > Secondary ~ "Primary",
                Primary < Secondary ~ "Secondary",
                TRUE ~ "Equal"
            )
    ) 

# A tibble: 30 × 4
     Bag Primary Secondary More_Prevalent
   <int>   <dbl>     <dbl> <chr>         
 1     1      27        31 Secondary     
 2     2      31        28 Primary       
 3     3      39        20 Primary       
 4     4      34        23 Primary       
 5     5      39        16 Primary       
 6     6      35        23 Primary       
 7     7      35        23 Primary       
 8     8      32        29 Primary       
 9     9      32        26 Primary       
10    10      20        33 Secondary     
# ℹ 20 more rows
…
Accepts tidyselect helpers

names_to = name of new column for former column names

Turn the pivoted columns’ names to values in this new column.

Column names will become strings

values_to = name of new column for former values

Turn the pivoted columns’ values to values in this new column.

Values must be of the same type

# A tibble: 30 × 8
     Bag   Red Green  Blue Orange Yellow Brown Weight
   <int> <dbl> <dbl> <dbl>  <dbl>  <dbl> <dbl>  <dbl>
 1     1    15     9     3      3      9    19   49.8
 2     2     9    17    19      3      3     8   49.0
 3     3    14     8     6      8     19     4   50.4
 4     4    15     7     3      8     16     8   49.2
 5     5    10     3     7      9     22     4   47.6
 6     6    12     7     6      5     17    11   49.8
 7     7     6     7     3      6     26    10   50.2
 8     8    14    11     4      1     14    17   51.7
 9     9     4     2    10      6     18    18   48.4
10    10     9     9     3      9      8    15   46.2
# ℹ 20 more rows

mm.long <- pivot_longer(
    mm.raw,
    # pivot columns between Red and Brown
    cols = Red:Brown, 
    # column names go to "Color"
    names_to = "Color", 
    # column values go to "Number"
    values_to = "Number") 

mm.long

# A tibble: 180 × 4
     Bag Weight Color  Number
   <int>  <dbl> <chr>   <dbl>
 1     1   49.8 Red        15
 2     1   49.8 Green       9
 3     1   49.8 Blue        3
 4     1   49.8 Orange      3
 5     1   49.8 Yellow      9
 6     1   49.8 Brown      19
 7     2   49.0 Red         9
 8     2   49.0 Green      17
 9     2   49.0 Blue       19
10     2   49.0 Orange      3
# ℹ 170 more rows
…
id_cols = c(...): Specify columns to keep as identifiers

Which columns should remain as-is (not pivoted)?

Defaults to all non-pivoted columns

names_from = name of column to use for new column names

Create column names from values in which column?

values_from = name of column to use for new values

Fill new columns with values from which column?

# A tibble: 180 × 4
     Bag Weight Color  Number
   <int>  <dbl> <chr>   <dbl>
 1     1   49.8 Red        15
 2     1   49.8 Green       9
 3     1   49.8 Blue        3
 4     1   49.8 Orange      3
 5     1   49.8 Yellow      9
 6     1   49.8 Brown      19
 7     2   49.0 Red         9
 8     2   49.0 Green      17
 9     2   49.0 Blue       19
10     2   49.0 Orange      3
# ℹ 170 more rows

mm.wide <- pivot_wider(
    mm.long,
    # Every value in `Color` becomes a column
    names_from = "Color", 
    # Values from `Number` go to new columns
    values_from = "Number") |> 
# Move `Weight` column to end
relocate(Weight, .after = last_col())

mm.wide

# A tibble: 30 × 8
     Bag   Red Green  Blue Orange Yellow Brown Weight
   <int> <dbl> <dbl> <dbl>  <dbl>  <dbl> <dbl>  <dbl>
 1     1    15     9     3      3      9    19   49.8
 2     2     9    17    19      3      3     8   49.0
 3     3    14     8     6      8     19     4   50.4
 4     4    15     7     3      8     16     8   49.2
 5     5    10     3     7      9     22     4   47.6
 6     6    12     7     6      5     17    11   49.8
 7     7     6     7     3      6     26    10   50.2
 8     8    14    11     4      1     14    17   51.7
 9     9     4     2    10      6     18    18   48.4
10    10     9     9     3      9      8    15   46.2
# ℹ 20 more rows
…
